Predictive Analytics
…
Publication: A. Kucharski, H. Mills, A. Pinsent, C. Fraser, M. Van Kerkhove, C. A. Donnelly, and S. Riley. 2014. Distinguishing between reservoir exposure and human-to-human transmission for emerging pathogens using case onset data. PLOS Currents Outbreaks (2014) Mar 7 Edition 1.

Data: Kucharski A, Mills HL, Pinsent A, Fraser C, Van Kerkhove M, Donnelly CA, Riley S (2014) Data from: Distinguishing between reservoir exposure and human-to-human transmission for emerging pathogens using case onset data. Dryad Digital Repository. https://doi.org/10.5061/dryad.2g43n.

The original data is available in the outbreaks package, which is a collection of several simulated and real outbreak datasets. The version we will use has been very slightly modified for use here. The analysis well do here is inspired by and modified from Stephen Turners Bioconnector workshop and a similar analysis by Shirin Glander.

In the flu dataset, of 134 cases, 31 died, 46 recovered, and 57 cases do not have a recorded outcome. Well develop models capable of predicting death or recovery for the unlabeled cases.

First well do some exploratory data analysis and data visualization to get an overall sense of the data we have. Notice that read_csv() correctly reads in the dates as date-formatted variables. Later on, when we run functions such as median() on a date variable, R will know how to handle those. Youll also notice that there are missing values throughout.

flu <- read_csv("h7n9.csv")
flu

## # A tibble: 134 x 8
##    case_id date_onset date_hospitaliz date_outcome outcome gender   age
##    <chr>   <date>     <date>           <date>       <chr>   <chr>  <int>
##  1 case_1  2013-02-19 NA               2013-03-04   Death   m         58
##  2 case_2  2013-02-27 2013-03-03       2013-03-10   Death   m          7
##  3 case_3  2013-03-09 2013-03-19       2013-04-09   Death   f         11
##  4 case_4  2013-03-19 2013-03-27       NA           <NA>    f         18
##  5 case_5  2013-03-19 2013-03-30       2013-05-15   Recover f         20
##  6 case_6  2013-03-21 2013-03-28       2013-04-26   Death   f          9
##  7 case_7  2013-03-20 2013-03-29       2013-04-09   Death   m         54
##  8 case_8  2013-03-07 2013-03-18       2013-03-27   Death   m         14
##  9 case_9  2013-03-25 2013-03-25       NA           <NA>    m         39
## 10 case_10 2013-03-28 2013-04-01       2013-04-03   Death   m         20
## #  with 124 more rows, and 1 more variable: province <chr>
…
Goal for this plot was to show you how to reshape the data using gather and how to join points using geom_path()

Create a few more variables for the flu dataset

If date_hospitalization is missing, we assume that the person did not go to the hospital and that may be an important predictor of death / recovery. Lets create an indicator of whether someone was hospitalized or not.

In order to use the other date variables, lets take the dates of onset, hospitalization, and outcome, and transform these into days between onset and hospitalization, and days between onset and outcome. The algorithms arent going to look at one column then another to do this math  we have to extract this feature ourselves.

flu %>% 
  # if date_hosp is NOT missing, they DID go to the hospital
  mutate(hospital = !is.na(date_hospitalization)) %>%
  mutate(days_to_hosp = as.numeric(date_hospitalization - date_onset)) %>%
  mutate(days_to_outcome = as.numeric(date_outcome - date_onset))

## # A tibble: 134 x 11
##    case_id date_onset date_hospitaliz date_outcome outcome gender   age
##    <chr>   <date>     <date>           <date>       <chr>   <chr>  <int>
##  1 case_1  2013-02-19 NA               2013-03-04   Death   m         58
##  2 case_2  2013-02-27 2013-03-03       2013-03-10   Death   m          7
##  3 case_3  2013-03-09 2013-03-19       2013-04-09   Death   f         11
##  4 case_4  2013-03-19 2013-03-27       NA           <NA>    f         18
##  5 case_5  2013-03-19 2013-03-30       2013-05-15   Recover f         20
##  6 case_6  2013-03-21 2013-03-28       2013-04-26   Death   f          9
##  7 case_7  2013-03-20 2013-03-29       2013-04-09   Death   m         54
##  8 case_8  2013-03-07 2013-03-18       2013-03-27   Death   m         14
##  9 case_9  2013-03-25 2013-03-25       NA           <NA>    m         39
## 10 case_10 2013-03-28 2013-04-01       2013-04-03   Death   m         20
## #  with 124 more rows, and 4 more variables: province <chr>,
## #   hospital <lgl>, days_to_hosp <dbl>, days_to_outcome <dbl>
…
Additionally, it is possible that if the outcome is early, maybe it was before some public health intervention so if person got sick later, maybe there were more resources available. Lets make a variable called early outcome indicating whether someone had an early outcome (earlier than the median outcome date observed).

flu %>%
  mutate(early_outcome = date_outcome < median(date_outcome, na.rm = TRUE)) %>%
  #take out any columns that start_with("date")
  select(-starts_with("date")) %>%
  mutate_if(is.logical, as.integer)

## # A tibble: 134 x 9
##    case_id outcome gender   age province hospital days_to_hosp
##    <chr>   <chr>   <chr>  <int> <chr>       <int>        <dbl>
##  1 case_1  Death   m         58 Shanghai        0           NA
##  2 case_2  Death   m          7 Shanghai        1            4
##  3 case_3  Death   f         11 Other           1           10
##  4 case_4  <NA>    f         18 Jiangsu         1            8
##  5 case_5  Recover f         20 Jiangsu         1           11
##  6 case_6  Death   f          9 Jiangsu         1            7
##  7 case_7  Death   m         54 Jiangsu         1            9
##  8 case_8  Death   m         14 Zhejiang        1           11
##  9 case_9  <NA>    m         39 Zhejiang        1            0
## 10 case_10 Death   m         20 Shanghai        1            4
## #  with 124 more rows, and 2 more variables: days_to_outcome <dbl>,
## #   early_outcome <int>
…
Take about 10 minutes to create some exploratory plots to investigate relationships between predictors and Sale_Price in the Ames Housing data

Data Splitting for FLU

slide 9

Before we go too far, we are going to split our data into training and test sets. In the case of the flu data, we are going to train on cases with known outcome and test on cases with unknown outcome.

train_flu <- flu %>%
  filter(!is.na(outcome)) %>%
  select(-case_id)
train_flu

## # A tibble: 77 x 8
##    outcome gender   age province hospital days_to_hosp days_to_outcome
##    <chr>   <chr>  <int> <chr>       <int>        <dbl>           <dbl>
##  1 Death   m         58 Shanghai        0           NA              13
##  2 Death   m          7 Shanghai        1            4              11
##  3 Death   f         11 Other           1           10              31
##  4 Recover f         20 Jiangsu         1           11              57
##  5 Death   f          9 Jiangsu         1            7              36
##  6 Death   m         54 Jiangsu         1            9              20
##  7 Death   m         14 Zhejiang        1           11              20
##  8 Death   m         20 Shanghai        1            4               6
##  9 Death   m         36 Zhejiang        1            2               6
## 10 Death   f         24 Shanghai        0           NA               7
## #  with 67 more rows, and 1 more variable: early_outcome <int>

test_flu <- flu %>%
  filter(is.na(outcome)) %>%
  select(-case_id)
test_flu

## # A tibble: 57 x 8
##    outcome gender   age province hospital days_to_hosp days_to_outcome
##    <chr>   <chr>  <int> <chr>       <int>        <dbl>           <dbl>
##  1 <NA>    f         18 Jiangsu         1            8              NA
##  2 <NA>    m         39 Zhejiang        1            0              NA
##  3 <NA>    f         34 Jiangsu         0           NA              NA
##  4 <NA>    m         51 Jiangsu         0           NA              NA
##  5 <NA>    m         56 Jiangsu         1            4              NA
##  6 <NA>    m         51 Zhejiang        0           NA              NA
##  7 <NA>    m         43 Jiangsu         0           NA              NA
##  8 <NA>    m         46 Jiangsu         0           NA              NA
##  9 <NA>    m         28 Jiangsu         0           NA              NA
## 10 <NA>    m         38 Zhejiang        1            0              NA
## #  with 47 more rows, and 1 more variable: early_outcome <int>
…
Now apply the preprocessing steps to the training and test sets using bake

ames_train_prep <- bake(rec_ames_prep, new_data = ames_train)
ames_test_prep <- bake(rec_ames_prep, new_data = ames_test)

#take a look at the baked training set
ames_train_prep

## # A tibble: 2,346 x 10
##    Sale_Price Longitude Latitude Neighborhood_Co Neighborhood_Ol
##         <dbl>     <dbl>    <dbl>            <dbl>            <dbl>
##  1       5.02    -3621.    2255.                0                0
##  2       5.24    -3621.    2255.                0                0
##  3       5.39    -3621.    2255.                0                0
##  4       5.28    -3622.    2255.                0                0
##  5       5.28    -3622.    2255.                0                0
##  6       5.25    -3622.    2255.                0                0
##  7       5.27    -3622.    2255.                0                0
##  8       5.23    -3622.    2255.                0                0
##  9       5.60    -3621.    2255.                0                0
## 10       5.15    -3621.    2255.                0                0
## #  with 2,336 more rows, and 5 more variables:
## #   Neighborhood_Edwards <dbl>, Neighborhood_Somerset <dbl>,
## #   Neighborhood_Northridge_Heights <dbl>, Neighborhood_Gilbert <dbl>,
## #   Neighborhood_other <dbl>
…
