Data Manipulation with dplyr
…
Lets load the tidyverse library, install and load a new package for statistical summaries, and a dataset about tuberculosis from the World Health Organization that David and I cleaned up.

Original data source: https://www.who.int/tb/country/data/download/en/

library(tidyverse)

#install.packages("skimr")
library(skimr)
tb <- read_csv("data/tb.csv")

Familiarize ourselves with the dataset using functions we saw last week

tb

## # A tibble: 3,850 x 18
##    country   who_region  year    pop incidence_100k incidence_number hiv_percent
##    <chr>     <chr>      <dbl>  <dbl>          <dbl>            <dbl>       <dbl>
##  1 Afghanis EMR         2000 2.01e7            190            38000        0.36
##  2 Afghanis EMR         2001 2.10e7            189            40000        0.3 
##  3 Afghanis EMR         2002 2.20e7            189            42000        0.26
##  4 Afghanis EMR         2003 2.31e7            189            44000        0.23
##  5 Afghanis EMR         2004 2.41e7            189            46000        0.22
##  6 Afghanis EMR         2005 2.51e7            189            47000        0.22
##  7 Afghanis EMR         2006 2.59e7            189            49000        0.22
##  8 Afghanis EMR         2007 2.66e7            189            50000        0.23
##  9 Afghanis EMR         2008 2.73e7            189            52000        0.23
## 10 Afghanis EMR         2009 2.80e7            189            53000        0.24
## #  with 3,840 more rows, and 11 more variables: hiv_incidence_100k <dbl>,
## #   hiv_number <dbl>, mort_nohiv_100k <dbl>, mort_nohiv_number <dbl>,
## #   mort_hiv_100k <dbl>, mort_hiv_number <dbl>, mort_100k <dbl>,
## #   mort_number <dbl>, case_fatality_ratio <dbl>, new_incidence_100k <dbl>,
## #   case_detection_percent <dbl>
…
dplyr is a package in R that allows you to work with and manipulate your data. It will allow us to focus in on the variables (columns) of interest and the observations (rows) of interest.

The Pipe %>% means THEN

The pipe is an operator in R that allows you to chain together functions in dplyr. In base R, to use multiple functions you have to nest your functions inside of each other, but using the pipe allows you to chain the functions together in a more readable format. The pipe character is %>% and essentially means then. You can create the character using CTRL+SHIFT+M or CMD+SHIFT+M

The pipe essentially takes whatever is before the pipe as input for whatever is after the pipe.

Lets find the bottom 50 rows of tb without and with the pipe.

#without the pipe
tail(tb, n = 50)

## # A tibble: 50 x 18
##    country who_region  year      pop incidence_100k incidence_number hiv_percent
##    <chr>   <chr>      <dbl>    <dbl>          <dbl>            <dbl>       <dbl>
##  1 Yemen   EMR         2004 20017068             87            17000       0.580
##  2 Yemen   EMR         2005 20582927             80            16000       0.570
##  3 Yemen   EMR         2006 21160534             73            15000       0.570
##  4 Yemen   EMR         2007 21751605             66            14000       0.570
##  5 Yemen   EMR         2008 22356391             60            13000       0.570
##  6 Yemen   EMR         2009 22974929             55            13000       0.580
##  7 Yemen   EMR         2010 23606779             52            12000       0.580
##  8 Yemen   EMR         2011 24252206             50            12000       0.59 
##  9 Yemen   EMR         2012 24909969             48            12000       0.61 
## 10 Yemen   EMR         2013 25576322             48            12000       0.63 
## #  with 40 more rows, and 11 more variables: hiv_incidence_100k <dbl>,
## #   hiv_number <dbl>, mort_nohiv_100k <dbl>, mort_nohiv_number <dbl>,
## #   mort_hiv_100k <dbl>, mort_hiv_number <dbl>, mort_100k <dbl>,
## #   mort_number <dbl>, case_fatality_ratio <dbl>, new_incidence_100k <dbl>,
## #   case_detection_percent <dbl>

#with the pipe
tb %>% tail(n = 50)

## # A tibble: 50 x 18
##    country who_region  year      pop incidence_100k incidence_number hiv_percent
##    <chr>   <chr>      <dbl>    <dbl>          <dbl>            <dbl>       <dbl>
##  1 Yemen   EMR         2004 20017068             87            17000       0.580
##  2 Yemen   EMR         2005 20582927             80            16000       0.570
##  3 Yemen   EMR         2006 21160534             73            15000       0.570
##  4 Yemen   EMR         2007 21751605             66            14000       0.570
##  5 Yemen   EMR         2008 22356391             60            13000       0.570
##  6 Yemen   EMR         2009 22974929             55            13000       0.580
##  7 Yemen   EMR         2010 23606779             52            12000       0.580
##  8 Yemen   EMR         2011 24252206             50            12000       0.59 
##  9 Yemen   EMR         2012 24909969             48            12000       0.61 
## 10 Yemen   EMR         2013 25576322             48            12000       0.63 
## #  with 40 more rows, and 11 more variables: hiv_incidence_100k <dbl>,
## #   hiv_number <dbl>, mort_nohiv_100k <dbl>, mort_nohiv_number <dbl>,
## #   mort_hiv_100k <dbl>, mort_hiv_number <dbl>, mort_100k <dbl>,
## #   mort_number <dbl>, case_fatality_ratio <dbl>, new_incidence_100k <dbl>,
## #   case_detection_percent <dbl>
…
If you want to return rows of the data where some criteria are met, use the filter() function. This is how we subset in the tidyverse. (Base R function is subset())

Here are the logical criteria in R: - ==: Equal to - !=: Not equal to - >, >=: Greater than, greater than or equal to - <, <=: Less than, less than or equal to

If you want to satisfy all of multiple conditions, you can use the and operator, &.

The or operator | (the vertical pipe character, shift-backslash) will return a subset that meet any of the conditions.

Lets see all the data from 2015 or more recent

tb %>% 
  filter(year >= 2015)

## # A tibble: 648 x 18
##    country   who_region  year    pop incidence_100k incidence_number hiv_percent
##    <chr>     <chr>      <dbl>  <dbl>          <dbl>            <dbl>       <dbl>
##  1 Afghanis EMR         2015 3.37e7          189              64000       0.3  
##  2 Afghanis EMR         2016 3.47e7          189              65000       0.31 
##  3 Afghanis EMR         2017 3.55e7          189              67000       0.31 
##  4 Albania   EUR         2015 2.92e6           16                480       0.82 
##  5 Albania   EUR         2016 2.93e6           16                480       0.83 
##  6 Albania   EUR         2017 2.93e6           20                580       0.85 
##  7 Algeria   AFR         2015 3.99e7           74              30000       0.580
##  8 Algeria   AFR         2016 4.06e7           70              29000       0.6  
##  9 Algeria   AFR         2017 4.13e7           70              29000       0.62 
## 10 American WPR         2015 5.55e4            8.3                5       0.1  
## #  with 638 more rows, and 11 more variables: hiv_incidence_100k <dbl>,
## #   hiv_number <dbl>, mort_nohiv_100k <dbl>, mort_nohiv_number <dbl>,
## #   mort_hiv_100k <dbl>, mort_hiv_number <dbl>, mort_100k <dbl>,
## #   mort_number <dbl>, case_fatality_ratio <dbl>, new_incidence_100k <dbl>,
## #   case_detection_percent <dbl>
…
Which countries have incidence_100k below 5?

tb %>% 
  filter(incidence_100k < 5) %>% 
  distinct(country)

## # A tibble: 39 x 1
##    country                          
##    <chr>                            
##  1 American Samoa                   
##  2 Andorra                          
##  3 Antigua and Barbuda              
##  4 Aruba                            
##  5 Barbados                         
##  6 Bermuda                          
##  7 Bonaire, Saint Eustatius and Saba
##  8 British Virgin Islands           
##  9 Canada                           
## 10 Cayman Islands                   
## #  with 29 more rows
…
To filter() a categorical variable for only certain levels, we can use the %in% operator.

Lets see data from Mexico, USA, and Canada. First we will have to figure out how those are spelled in this dataset. Open the spreadsheet viewer and find out. Well see a way to find them in code later on in the course.

Ok, so we figured out that they are spelled: Mexico United States of America Canada

Now well create a vector of countries we are interested in

noram <- c("Mexico", "United States of America", "Canada")

And use that vector to filter() tb for countries %in% noram

tb %>% filter(country %in% noram)

## # A tibble: 54 x 18
##    country who_region  year      pop incidence_100k incidence_number hiv_percent
##    <chr>   <chr>      <dbl>    <dbl>          <dbl>            <dbl>       <dbl>
##  1 Canada  AMR         2000 30735773            6.4             2000          13
##  2 Canada  AMR         2001 31024732            6.6             2000          13
##  3 Canada  AMR         2002 31320889            6.1             1900          13
##  4 Canada  AMR         2003 31627806            5.9             1900          13
##  5 Canada  AMR         2004 31949417            5.6             1800          13
##  6 Canada  AMR         2005 32287980            5.5             1800          13
##  7 Canada  AMR         2006 32645483            5.4             1800          13
##  8 Canada  AMR         2007 33019932            5.3             1700          13
##  9 Canada  AMR         2008 33404548            5.4             1800          13
## 10 Canada  AMR         2009 33789831            5.3             1800           5
## #  with 44 more rows, and 11 more variables: hiv_incidence_100k <dbl>,
## #   hiv_number <dbl>, mort_nohiv_100k <dbl>, mort_nohiv_number <dbl>,
## #   mort_hiv_100k <dbl>, mort_hiv_number <dbl>, mort_100k <dbl>,
## #   mort_number <dbl>, case_fatality_ratio <dbl>, new_incidence_100k <dbl>,
## #   case_detection_percent <dbl>

You can also save the results of a pipeline. Notice that the rows belonging to North American countries are returned in the console. If we wanted to do something with those rows, it might be helpful to save them as their own dataset. To create a new object, we use the <- operator.

noramData <- tb %>% filter(country %in% noram)

drop_na()

The drop_na() function is extremely useful for when we need to subset a variable to remove missing values.

Return the tb dataset without rows that were missing on the hiv_incidence_100k variable

tb %>% drop_na(hiv_incidence_100k)

## # A tibble: 3,531 x 18
##    country   who_region  year    pop incidence_100k incidence_number hiv_percent
##    <chr>     <chr>      <dbl>  <dbl>          <dbl>            <dbl>       <dbl>
##  1 Afghanis EMR         2000 2.01e7            190            38000        0.36
##  2 Afghanis EMR         2001 2.10e7            189            40000        0.3 
##  3 Afghanis EMR         2002 2.20e7            189            42000        0.26
##  4 Afghanis EMR         2003 2.31e7            189            44000        0.23
##  5 Afghanis EMR         2004 2.41e7            189            46000        0.22
##  6 Afghanis EMR         2005 2.51e7            189            47000        0.22
##  7 Afghanis EMR         2006 2.59e7            189            49000        0.22
##  8 Afghanis EMR         2007 2.66e7            189            50000        0.23
##  9 Afghanis EMR         2008 2.73e7            189            52000        0.23
## 10 Afghanis EMR         2009 2.80e7            189            53000        0.24
## #  with 3,521 more rows, and 11 more variables: hiv_incidence_100k <dbl>,
## #   hiv_number <dbl>, mort_nohiv_100k <dbl>, mort_nohiv_number <dbl>,
## #   mort_hiv_100k <dbl>, mort_hiv_number <dbl>, mort_100k <dbl>,
## #   mort_number <dbl>, case_fatality_ratio <dbl>, new_incidence_100k <dbl>,
## #   case_detection_percent <dbl>

Return the tb dataset without any rows that had an NA in any column. *Use with caution because this will remove a lot of data

tb %>% drop_na()

## # A tibble: 195 x 18
##    country   who_region  year    pop incidence_100k incidence_number hiv_percent
##    <chr>     <chr>      <dbl>  <dbl>          <dbl>            <dbl>       <dbl>
##  1 Afghanis EMR         2017 3.55e7          189              67000        0.31
##  2 Albania   EUR         2017 2.93e6           20                580        0.85
##  3 Algeria   AFR         2017 4.13e7           70              29000        0.62
##  4 American WPR         2017 5.56e4           10                  6        0   
##  5 Angola    AFR         2017 2.98e7          359             107000       17   
##  6 Antigua  AMR         2017 1.02e5            1.1                1        0.12
##  7 Argentina AMR         2017 4.43e7           26              12000       13   
##  8 Armenia   EUR         2017 2.93e6           36               1100        7.1 
##  9 Australia WPR         2017 2.45e7            6.8             1700        2.1 
## 10 Austria   EUR         2017 8.74e6            7.4              650        4.4 
## #  with 185 more rows, and 11 more variables: hiv_incidence_100k <dbl>,
## #   hiv_number <dbl>, mort_nohiv_100k <dbl>, mort_nohiv_number <dbl>,
## #   mort_hiv_100k <dbl>, mort_hiv_number <dbl>, mort_100k <dbl>,
## #   mort_number <dbl>, case_fatality_ratio <dbl>, new_incidence_100k <dbl>,
## #   case_detection_percent <dbl>

select()

Whereas the filter() function allows you to return only certain rows matching a condition, the select() function returns only certain columns. The first argument is the data, and subsequent arguments are the columns you want.

See just the country, year, incidence_100k columns

# list the column names you want to see separated by a comma
tb %>% 
  select(country, year, incidence_100k)

## # A tibble: 3,850 x 3
##    country      year incidence_100k
##    <chr>       <dbl>          <dbl>
##  1 Afghanistan  2000            190
##  2 Afghanistan  2001            189
##  3 Afghanistan  2002            189
##  4 Afghanistan  2003            189
##  5 Afghanistan  2004            189
##  6 Afghanistan  2005            189
##  7 Afghanistan  2006            189
##  8 Afghanistan  2007            189
##  9 Afghanistan  2008            189
## 10 Afghanistan  2009            189
## #  with 3,840 more rows

Use the - sign to drop these same columns

tb %>% 
  select(-country, -year, -incidence_100k)

## # A tibble: 3,850 x 15
##    who_region      pop incidence_number hiv_percent hiv_incidence_10 hiv_number
##    <chr>         <dbl>            <dbl>       <dbl>             <dbl>      <dbl>
##  1 EMR        20093756            38000        0.36             0.68         140
##  2 EMR        20966463            40000        0.3              0.570        120
##  3 EMR        21979923            42000        0.26             0.49         110
##  4 EMR        23064851            44000        0.23             0.44         100
##  5 EMR        24118979            46000        0.22             0.41         100
##  6 EMR        25070798            47000        0.22             0.42         100
##  7 EMR        25893450            49000        0.22             0.42         110
##  8 EMR        26616792            50000        0.23             0.43         120
##  9 EMR        27294031            52000        0.23             0.44         120
## 10 EMR        28004331            53000        0.24             0.45         130
## #  with 3,840 more rows, and 9 more variables: mort_nohiv_100k <dbl>,
## #   mort_nohiv_number <dbl>, mort_hiv_100k <dbl>, mort_hiv_number <dbl>,
## #   mort_100k <dbl>, mort_number <dbl>, case_fatality_ratio <dbl>,
## #   new_incidence_100k <dbl>, case_detection_percent <dbl>

select() helper functions

The starts_with(), ends_with() and contains() functions provide very useful tools for dropping/keeping several variables at once without having to list each and every column you want to keep. The function will return columns that either start with a specific string of text, ends with a certain string of text, or contain a certain string of text.

# these functions are all case sensitive
tb %>%  
  select(starts_with("percent"))

## # A tibble: 3,850 x 0

tb %>% 
  select(ends_with("r"))

## # A tibble: 3,850 x 6
##     year incidence_number hiv_number mort_nohiv_number mort_hiv_number
##    <dbl>            <dbl>      <dbl>             <dbl>           <dbl>
##  1  2000            38000        140             14000              31
##  2  2001            40000        120             13000              35
##  3  2002            42000        110             12000              60
##  4  2003            44000        100             13000              57
##  5  2004            46000        100             12000              50
##  6  2005            47000        100             12000              48
##  7  2006            49000        110             11000              46
##  8  2007            50000        120             10000              45
##  9  2008            52000        120             11000              48
## 10  2009            53000        130             12000              55
## #  with 3,840 more rows, and 1 more variable: mort_number <dbl>

tb %>% 
  select(contains("_"))

## # A tibble: 3,850 x 15
##    who_region incidence_100k incidence_number hiv_percent hiv_incidence_100k
##    <chr>               <dbl>            <dbl>       <dbl>              <dbl>
##  1 EMR                   190            38000        0.36              0.68 
##  2 EMR                   189            40000        0.3               0.570
##  3 EMR                   189            42000        0.26              0.49 
##  4 EMR                   189            44000        0.23              0.44 
##  5 EMR                   189            46000        0.22              0.41 
##  6 EMR                   189            47000        0.22              0.42 
##  7 EMR                   189            49000        0.22              0.42 
##  8 EMR                   189            50000        0.23              0.43 
##  9 EMR                   189            52000        0.23              0.44 
## 10 EMR                   189            53000        0.24              0.45 
## #  with 3,840 more rows, and 10 more variables: hiv_number <dbl>,
## #   mort_nohiv_100k <dbl>, mort_nohiv_number <dbl>, mort_hiv_100k <dbl>,
## #   mort_hiv_number <dbl>, mort_100k <dbl>, mort_number <dbl>,
## #   case_fatality_ratio <dbl>, new_incidence_100k <dbl>,
## #   case_detection_percent <dbl>

# columns that do not contain -
tb %>% 
  select(-contains("_"))

## # A tibble: 3,850 x 3
##    country      year      pop
##    <chr>       <dbl>    <dbl>
##  1 Afghanistan  2000 20093756
##  2 Afghanistan  2001 20966463
##  3 Afghanistan  2002 21979923
##  4 Afghanistan  2003 23064851
##  5 Afghanistan  2004 24118979
##  6 Afghanistan  2005 25070798
##  7 Afghanistan  2006 25893450
##  8 Afghanistan  2007 26616792
##  9 Afghanistan  2008 27294031
## 10 Afghanistan  2009 28004331
## #  with 3,840 more rows
…
