Essential Statistics with R
…
NHANES is a research program designed to assess the health and nutritional status of adults and children in the United States. The survey is one of the only to combine both survey questions and physical examinations. It began in the 1960s and since 1999 examines a nationally representative sample of about 5,000 people each year. The NHANES interview includes demographic, socioeconomic, dietary, and health-related questions. The physical exam includes medical, dental, and physiological measurements, as well as several standard laboratory tests. NHANES is used to determine the prevalence of major diseases and risk factors for those diseases. NHANES data are also the basis for national standards for measurements like height, weight, and blood pressure. Data from this survey is used in epidemiology studies and health sciences research, which help develop public health policy, direct and design health programs and services, and expand the health knowledge for the Nation.

We are using a small slice of this data. Were only using a handful of variables from the 2011-2012 survey years on about 5,000 individuals. The CDC uses a sampling strategy to purposefully oversample certain subpopulations like racial minorities. Naive analysis of the original NHANES data can lead to mistaken conclusions because the percentages of people from each racial group in the data are different from general population. The 5,000 individuals here are resampled from the larger NHANES study population to undo these oversampling effects, so you can treat this as if it were a simple random sample from the American population.

Import & inspect

Lets load and inspect the data.

nh <- read_csv("data/nhanes.csv")

# remove children from future analyses
nh <- filter(nh, Age >= 18)
nh

## # A tibble: 3,707 x 32
##       id Gender   Age Race  Education    MaritalStatus RelationshipStat Insured
##    <dbl> <chr>  <dbl> <chr> <chr>        <chr>         <chr>             <chr>  
##  1 62172 female    43 Black High School  NeverMarried  Single            Yes    
##  2 62174 male      80 White College Grad Married       Committed         Yes    
##  3 62174 male      80 White College Grad Married       Committed         Yes    
##  4 62176 female    34 White College Grad Married       Committed         Yes    
##  5 62178 male      80 White High School  Widowed       Single            Yes    
##  6 62180 male      35 White College Grad Married       Committed         Yes    
##  7 62199 male      57 White College Grad LivePartner   Committed         Yes    
##  8 62199 male      57 White College Grad LivePartner   Committed         Yes    
##  9 62199 male      57 White College Grad LivePartner   Committed         Yes    
## 10 62199 male      57 White College Grad LivePartner   Committed         Yes    
## #  with 3,697 more rows, and 24 more variables: Income <dbl>, Poverty <dbl>,
## #   HomeRooms <dbl>, HomeOwn <chr>, Work <chr>, Weight <dbl>, Height <dbl>,
## #   BMI <dbl>, Pulse <dbl>, BPSys <dbl>, BPDia <dbl>, Testosterone <dbl>,
## #   HDLChol <dbl>, TotChol <dbl>, Diabetes <chr>, DiabetesAge <dbl>,
## #   nPregnancies <dbl>, nBabies <dbl>, SleepHrsNight <dbl>, PhysActive <chr>,
## #   PhysActiveDays <dbl>, AlcoholDay <dbl>, AlcoholYear <dbl>,
## #   SmokingStatus <chr>
…
# use dplyr to figure out how which variables have the most missings
skim(nh) %>% 
  select(skim_variable, n_missing, complete_rate) %>%
  arrange(complete_rate)

## # A tibble: 32 x 3
##    skim_variable  n_missing complete_rate
##    <chr>              <int>         <dbl>
##  1 DiabetesAge         3408        0.0807
##  2 nBabies             2539        0.315 
##  3 nPregnancies        2442        0.341 
##  4 PhysActiveDays      1951        0.474 
##  5 AlcoholDay          1210        0.674 
##  6 AlcoholYear          723        0.805 
##  7 Income               301        0.919 
##  8 Testosterone         269        0.927 
##  9 Poverty              252        0.932 
## 10 HDLChol              207        0.944 
## #  with 22 more rows
…
Single Imputation

If there are few missing data points, you could consider imputing with the median / mean (continuous variable) or with the mode (categorical variable). The replace_na() function from the tidyr package (loaded with tidyverse) used with mutate() is an easy method of replacing NA with a single value.

# how many missings in BMI
summary(nh$BMI)

##    Min. 1st Qu.  Median    Mean 3rd Qu.    Max.    NA's 
##   15.70   23.80   27.60   28.55   31.90   80.60      31

nh %>% 
  select(BMI) %>% 
  filter(is.na(BMI))

## # A tibble: 31 x 1
##      BMI
##    <dbl>
##  1    NA
##  2    NA
##  3    NA
##  4    NA
##  5    NA
##  6    NA
##  7    NA
##  8    NA
##  9    NA
## 10    NA
## #  with 21 more rows

# Use median imputation to fill in missings in BMI
# because we are changing a variable, we will need mutate()
nh %>%
  mutate(BMI = replace_na(BMI, median(BMI, na.rm = TRUE)))

## # A tibble: 3,707 x 32
##       id Gender   Age Race  Education    MaritalStatus RelationshipStat Insured
##    <dbl> <chr>  <dbl> <chr> <chr>        <chr>         <chr>             <chr>  
##  1 62172 female    43 Black High School  NeverMarried  Single            Yes    
##  2 62174 male      80 White College Grad Married       Committed         Yes    
##  3 62174 male      80 White College Grad Married       Committed         Yes    
##  4 62176 female    34 White College Grad Married       Committed         Yes    
##  5 62178 male      80 White High School  Widowed       Single            Yes    
##  6 62180 male      35 White College Grad Married       Committed         Yes    
##  7 62199 male      57 White College Grad LivePartner   Committed         Yes    
##  8 62199 male      57 White College Grad LivePartner   Committed         Yes    
##  9 62199 male      57 White College Grad LivePartner   Committed         Yes    
## 10 62199 male      57 White College Grad LivePartner   Committed         Yes    
## #  with 3,697 more rows, and 24 more variables: Income <dbl>, Poverty <dbl>,
## #   HomeRooms <dbl>, HomeOwn <chr>, Work <chr>, Weight <dbl>, Height <dbl>,
## #   BMI <dbl>, Pulse <dbl>, BPSys <dbl>, BPDia <dbl>, Testosterone <dbl>,
## #   HDLChol <dbl>, TotChol <dbl>, Diabetes <chr>, DiabetesAge <dbl>,
## #   nPregnancies <dbl>, nBabies <dbl>, SleepHrsNight <dbl>, PhysActive <chr>,
## #   PhysActiveDays <dbl>, AlcoholDay <dbl>, AlcoholYear <dbl>,
## #   SmokingStatus <chr>
…
