Linear Regression
…
To visualize the predictions from any model, well start by generating an evenly spaced grid of values that covers the region where our data lies. To do this, Ill use the data_grid() function from the modelr package.

newdata <-  data_grid(evals, bty_avg)
newdata

## # A tibble: 35 x 1
##    bty_avg
##      <dbl>
##  1    1.67
##  2    2   
##  3    2.33
##  4    2.5 
##  5    2.67
##  6    2.83
##  7    3   
##  8    3.17
##  9    3.33
## 10    3.5 
## #  with 25 more rows

Next we add predictions. Well use add_predictions() which takes a data frame and a model. It adds the predictions from the model to a new column in the data frame

newdata <- add_predictions(newdata, mod1)
newdata

## # A tibble: 35 x 2
##    bty_avg  pred
##      <dbl> <dbl>
##  1    1.67  3.99
##  2    2     4.01
##  3    2.33  4.04
##  4    2.5   4.05
##  5    2.67  4.06
##  6    2.83  4.07
##  7    3     4.08
##  8    3.17  4.09
##  9    3.33  4.10
## 10    3.5   4.11
## #  with 25 more rows
…
The first plot shows fitted values on x and residuals on y. We would like these centered on 0 and we do not want to see a different pattern on the left and the right. Ours are not bad but we do see more residuals on the bottom (score - pred = Negative), meaning based on their beauty score, we predicted a higher teaching score than they actually had.

The second plot shows a qq plot of the residuals. If the residuals were normally distributed, they would follow the 1:1 dotted line. We see deviations from the normal distribution for the upper portion of the distribution.

The third plot shows the sqrt(resid) on the y axis so all the residuals (positive and negative) can be assessed together.

The fourth plot shows leverage, how much influence each point has on the regression line.

If we add the residuals onto the original data frame, we can also plot the residuals against other variables from the dataset and maybe new hypotheses will emerge.

evals %>%
  add_residuals(mod1) %>% 
  add_predictions(mod1)

## # A tibble: 463 x 23
##    score rank       ethnicity   gender language   age cls_perc_eval cls_did_eval
##    <dbl> <chr>      <chr>       <chr>  <chr>    <dbl>         <dbl>        <dbl>
##  1   4.7 tenure tr minority    female english     36          55.8           24
##  2   4.1 tenure tr minority    female english     36          68.8           86
##  3   3.9 tenure tr minority    female english     36          60.8           76
##  4   4.8 tenure tr minority    female english     36          62.6           77
##  5   4.6 tenured    not minori male   english     59          85             17
##  6   4.3 tenured    not minori male   english     59          87.5           35
##  7   2.8 tenured    not minori male   english     59          88.6           39
##  8   4.1 tenured    not minori male   english     51         100             55
##  9   3.4 tenured    not minori male   english     51          56.9          111
## 10   4.5 tenured    not minori female english     40          87.0           40
## #  with 453 more rows, and 15 more variables: cls_students <dbl>,
## #   cls_level <chr>, cls_profs <chr>, cls_credits <chr>, bty_f1lower <dbl>,
## #   bty_f1upper <dbl>, bty_f2upper <dbl>, bty_m1lower <dbl>, bty_m1upper <dbl>,
## #   bty_m2upper <dbl>, bty_avg <dbl>, pic_outfit <chr>, pic_color <chr>,
## #   resid <dbl>, pred <dbl>

# save them with names
evals <- evals %>%
  add_residuals(mod1, var = "resid_mod1") %>% 
  add_predictions(mod1, var = "pred_mod1")

# just see the variables we want
evals %>%
  select(bty_avg, score, pred_mod1, resid_mod1)

## # A tibble: 463 x 4
##    bty_avg score pred_mod1 resid_mod1
##      <dbl> <dbl>     <dbl>      <dbl>
##  1    5      4.7      4.21    0.486  
##  2    5      4.1      4.21   -0.114  
##  3    5      3.9      4.21   -0.314  
##  4    5      4.8      4.21    0.586  
##  5    3      4.6      4.08    0.520  
##  6    3      4.3      4.08    0.220  
##  7    3      2.8      4.08   -1.28   
##  8    3.33   4.1      4.10   -0.00244
##  9    3.33   3.4      4.10   -0.702  
## 10    3.17   4.5      4.09    0.409  
## #  with 453 more rows
…
Mostly distributed randomly across levels of X. That is good.

There are several points for which the observed score - the predicted score is very negative. Meaning based on the beauty score, we predicted higher teaching scores than we observed. Lets look at the points for which the fit was worst (residuals below -1)

evals %>%
  filter(resid_mod1 < -1) %>%
  select(bty_avg, score, pred_mod1, resid_mod1)

## # A tibble: 23 x 4
##    bty_avg score pred_mod1 resid_mod1
##      <dbl> <dbl>     <dbl>      <dbl>
##  1    3      2.8      4.08      -1.28
##  2    4      2.5      4.15      -1.65
##  3    5.5    2.9      4.25      -1.35
##  4    5.5    3.2      4.25      -1.05
##  5    5.17   2.3      4.22      -1.92
##  6    4.33   3        4.17      -1.17
##  7    4.33   2.8      4.17      -1.37
##  8    4.33   3        4.17      -1.17
##  9    8.17   3.3      4.42      -1.12
## 10    7      3.1      4.35      -1.25
## #  with 13 more rows
…
We see each of the ranks separated by gender along the x-axis at their predicted group mean. The residuals indicate the distance from the actual data point to their predicted group mean. Remember that we would like residuals to be evenly distributed around 0. We see high residuals (below -1) mainly for female teaching faculty and for male teaching faculty. Remember that it was in that group that we had the greatest difference between male and female faculty.

How many residuals fit the model well?

evals %>% 
  add_residuals(mod4) %>%
  filter(resid < .5 & resid > -.5)

## # A tibble: 282 x 24
##    score rank       ethnicity   gender language   age cls_perc_eval cls_did_eval
##    <dbl> <chr>      <chr>       <chr>  <chr>    <dbl>         <dbl>        <dbl>
##  1   4.1 tenure tr minority    female english     36          68.8           86
##  2   3.9 tenure tr minority    female english     36          60.8           76
##  3   4.6 tenured    not minori male   english     59          85             17
##  4   4.3 tenured    not minori male   english     59          87.5           35
##  5   4.1 tenured    not minori male   english     51         100             55
##  6   4.5 tenured    not minori female english     40          87.0           40
##  7   3.8 tenured    not minori female english     40          88.9           24
##  8   4.5 tenured    not minori female english     40          96             24
##  9   3.9 tenured    not minori female english     40          56             14
## 10   3.9 tenured    not minori female english     40          88.1           37
## #  with 272 more rows, and 16 more variables: cls_students <dbl>,
## #   cls_level <chr>, cls_profs <chr>, cls_credits <chr>, bty_f1lower <dbl>,
## #   bty_f1upper <dbl>, bty_f2upper <dbl>, bty_m1lower <dbl>, bty_m1upper <dbl>,
## #   bty_m2upper <dbl>, bty_avg <dbl>, pic_outfit <chr>, pic_color <chr>,
## #   resid_mod1 <dbl>, pred_mod1 <dbl>, resid <dbl>
…
How many residuals are between 0.5 and -0.5

evals %>% 
  add_residuals(mod5) %>%
  filter(resid < .5 & resid > -.5)

## # A tibble: 298 x 24
##    score rank       ethnicity   gender language   age cls_perc_eval cls_did_eval
##    <dbl> <chr>      <chr>       <chr>  <chr>    <dbl>         <dbl>        <dbl>
##  1   4.1 tenure tr minority    female english     36          68.8           86
##  2   3.9 tenure tr minority    female english     36          60.8           76
##  3   4.6 tenured    not minori male   english     59          85             17
##  4   4.3 tenured    not minori male   english     59          87.5           35
##  5   4.1 tenured    not minori male   english     51         100             55
##  6   4.5 tenured    not minori female english     40          87.0           40
##  7   3.8 tenured    not minori female english     40          88.9           24
##  8   4.5 tenured    not minori female english     40          96             24
##  9   4.6 tenured    not minori female english     40          85             17
## 10   3.9 tenured    not minori female english     40          56             14
## #  with 288 more rows, and 16 more variables: cls_students <dbl>,
## #   cls_level <chr>, cls_profs <chr>, cls_credits <chr>, bty_f1lower <dbl>,
## #   bty_f1upper <dbl>, bty_f2upper <dbl>, bty_m1lower <dbl>, bty_m1upper <dbl>,
## #   bty_m2upper <dbl>, bty_avg <dbl>, pic_outfit <chr>, pic_color <chr>,
## #   resid_mod1 <dbl>, pred_mod1 <dbl>, resid <dbl>
…
