Multivariate Statistics
…
Example 1 Biopsy Data

Today well be analyzing the biopsy dataset, which originally comes from the MASS package. It is a breast cancer dataset from the University of Wisconsin Hospitals, Madison from Dr.William H. Wolberg. He assessed biopsies of breast tumors for 699 patients; each of nine attributes was scored on a scale of 1 to 10. The true outcome (benign/malignant) is also known. Part of this session was inspired by Claus Wilke, a famous data viz guru, who showed how to use clean up the output from some PCA functions using the broom package.

Load the data and clean up the column names

Take a look at the original dataset

# original dataset from MASS package
biopsy <- as_tibble(MASS::biopsy)
biopsy

## # A tibble: 699 x 11
##    ID         V1    V2    V3    V4    V5    V6    V7    V8    V9 class    
##    <chr>   <int> <int> <int> <int> <int> <int> <int> <int> <int> <fct>    
##  1 1000025     5     1     1     1     2     1     3     1     1 benign   
##  2 1002945     5     4     4     5     7    10     3     2     1 benign   
##  3 1015425     3     1     1     1     2     2     3     1     1 benign   
##  4 1016277     6     8     8     1     3     4     3     7     1 benign   
##  5 1017023     4     1     1     3     2     1     3     1     1 benign   
##  6 1017122     8    10    10     8     7    10     9     7     1 malignant
##  7 1018099     1     1     1     1     2    10     3     1     1 benign   
##  8 1018561     2     1     2     1     2     1     3     1     1 benign   
##  9 1033078     2     1     1     1     2     1     1     1     5 benign   
## 10 1033078     4     2     1     1     2     1     2     1     1 benign   
## #  with 689 more rows
…
Nice! Notice by default that the first two PCs are shown, PC1 (highest eigenvalue) is typically shown on the X and PC2 on the Y. Our PC1 separates by tumor class! PC1 has benign with mostly positive loadings and malignant with mostly negative loadings. This autoplot feature also prints the amount of variation that each PC explains and we can already tell that PC1 explains the vast majority of the variance.

Now Ill show another method to plot by combining the PCs with the original data, so that we can color by the class variable or other categorical variables which are on the original dataframe but not in the pca_fit. We will use the broom packages augment() function that takes a model and then the dataset that you would like to add.

pca_fit %>%
  augment(biopsy)

## # A tibble: 683 x 21
##    .rownames ID      clump_thickness uniformity_cell_size uniformity_cell_shape
##    <chr>     <chr>             <int>                <int>                 <int>
##  1 1         1000025               5                    1                     1
##  2 2         1002945               5                    4                     4
##  3 3         1015425               3                    1                     1
##  4 4         1016277               6                    8                     8
##  5 5         1017023               4                    1                     1
##  6 6         1017122               8                   10                    10
##  7 7         1018099               1                    1                     1
##  8 8         1018561               2                    1                     2
##  9 9         1033078               2                    1                     1
## 10 10        1033078               4                    2                     1
## #  with 673 more rows, and 16 more variables: marginal_adhesion <int>,
## #   single_epithelial_cell_size <int>, bare_nuclei <int>,
## #   bland_chromatin <int>, normal_nucleoli <int>, mitoses <int>, class <fct>,
## #   .fittedPC1 <dbl>, .fittedPC2 <dbl>, .fittedPC3 <dbl>, .fittedPC4 <dbl>,
## #   .fittedPC5 <dbl>, .fittedPC6 <dbl>, .fittedPC7 <dbl>, .fittedPC8 <dbl>,
## #   .fittedPC9 <dbl>
…
We could add better axes titles here, but overall, this was an easy plot to create and the code is easily extendable if you wanted to investigate other variables.

Rotation matrix

Next, we will look at the rotation matrix. This will show us the loadings of each feature on each PC - what contribution each variable has to each PC. The rotation matrix is stored as pca_fit$rotation, but we can extract it using the tidy() function from broom. When applied to prcomp objects, the tidy() function takes an additional argument, matrix =, which we set to matrix = "rotation" to extract the rotation matrix.

pca_fit %>%
  tidy(matrix = "rotation")

## # A tibble: 81 x 3
##    column                  PC    value
##    <chr>                <dbl>    <dbl>
##  1 clump_thickness          1 -0.302  
##  2 clump_thickness          2 -0.141  
##  3 clump_thickness          3  0.866  
##  4 clump_thickness          4 -0.108  
##  5 clump_thickness          5  0.0803 
##  6 clump_thickness          6 -0.243  
##  7 clump_thickness          7 -0.00852
##  8 clump_thickness          8  0.248  
##  9 clump_thickness          9 -0.00275
## 10 uniformity_cell_size     1 -0.381  
## #  with 71 more rows
…
PC1 separates by Type! PC1 separates Type 1 and 3. Type 1 has negative loadings on PC1 and Type 3 has positive loadings. PC2 separates Type 1/3 from Type 2. Type1/3 have positive loadings and Type 2 has negative loadings.

Now lets investigate the rotation matrix to find out which variables compose PC1 and PC2.

winePCA %>%
  tidy(matrix = "rotation")

## # A tibble: 169 x 3
##    column     PC   value
##    <chr>   <dbl>   <dbl>
##  1 Alcohol     1 -0.144 
##  2 Alcohol     2  0.484 
##  3 Alcohol     3 -0.207 
##  4 Alcohol     4  0.0179
##  5 Alcohol     5 -0.266 
##  6 Alcohol     6  0.214 
##  7 Alcohol     7 -0.0564
##  8 Alcohol     8  0.396 
##  9 Alcohol     9 -0.509 
## 10 Alcohol    10  0.212 
## #  with 159 more rows
…
Again we could impute the missing values, or we could drop them out. If you choose to impute, you should perform the analysis with the values dropped as well and compare the results to make sure that your imputation does not change the results too much. Because it is only 11 datapoints out of 344, we will drop them out.

penguins <- penguins %>% drop_na()

Next, we will drop the year variable. Then we will add an ID number so we can match the demographic data to the heatmap later. Also create a variable that has both the species and the sex together then make that column a factor column (because it needs to be a factor to annotate the heatmap with this variable). Finally, change the order of the columns.

penguins <- penguins %>%
  select(-year) %>%
  mutate(ID = 1:333) %>%
  mutate(speciessex = paste0(species, sex)) %>%
  mutate(speciessex = as.factor(speciessex)) %>%
  select(ID, species, sex, speciessex, island, everything()) 
penguins

## # A tibble: 333 x 9
##       ID species sex    speciessex   island    bill_length_mm bill_depth_mm
##    <int> <fct>   <fct>  <fct>        <fct>              <dbl>         <dbl>
##  1     1 Adelie  male   Adeliemale   Torgersen           39.1          18.7
##  2     2 Adelie  female Adeliefemale Torgersen           39.5          17.4
##  3     3 Adelie  female Adeliefemale Torgersen           40.3          18  
##  4     4 Adelie  female Adeliefemale Torgersen           36.7          19.3
##  5     5 Adelie  male   Adeliemale   Torgersen           39.3          20.6
##  6     6 Adelie  female Adeliefemale Torgersen           38.9          17.8
##  7     7 Adelie  male   Adeliemale   Torgersen           39.2          19.6
##  8     8 Adelie  female Adeliefemale Torgersen           41.1          17.6
##  9     9 Adelie  male   Adeliemale   Torgersen           38.6          21.2
## 10    10 Adelie  male   Adeliemale   Torgersen           34.6          21.1
## #  with 323 more rows, and 2 more variables: flipper_length_mm <int>,
## #   body_mass_g <int>
…
