Regression
…
#?tidy
#?augment
#?glance
tidy(mod1)

## # A tibble: 2 x 5
##   term        estimate std.error statistic  p.value
##   <chr>          <dbl>     <dbl>     <dbl>    <dbl>
## 1 (Intercept)    3.62    0.254        14.3 8.82e-45
## 2 Width_in       0.781   0.00950      82.1 0.

augment(mod1)

## # A tibble: 3,135 x 10
##    .rownames Height_in Width_in .fitted .se.fit  .resid    .hat .sigma .cooksd
##    <chr>         <dbl>    <dbl>   <dbl>   <dbl>   <dbl>   <dbl>  <dbl>   <dbl>
##  1 1                37     29.5   26.7    0.166 10.3    3.99e-4   8.30 3.10e-4
##  2 2                18     14     14.6    0.165  3.45   3.96e-4   8.31 3.42e-5
##  3 3                13     16     16.1    0.158 -3.11   3.61e-4   8.31 2.54e-5
##  4 4                14     18     17.7    0.152 -3.68   3.37e-4   8.31 3.30e-5
##  5 5                14     18     17.7    0.152 -3.68   3.37e-4   8.31 3.30e-5
##  6 6                 7     10     11.4    0.185 -4.43   4.98e-4   8.31 7.09e-5
##  7 7                 6     13     13.8    0.170 -7.77   4.18e-4   8.30 1.83e-4
##  8 8                 6     13     13.8    0.170 -7.77   4.18e-4   8.30 1.83e-4
##  9 9                15     15     15.3    0.161 -0.333  3.77e-4   8.31 3.04e-7
## 10 10                9      7      9.09   0.204 -0.0870 6.01e-4   8.31 3.30e-8
## #  with 3,125 more rows, and 1 more variable: .std.resid <dbl>
…
In our model, the slopes are equivalent for both artists dead and living, so this plot is not our model. We need a plotting method that will work no matter what the model is.

To visualise the predictions from any model, well start by generating an evenly spaced grid of values that covers the region where our data lies. To do this, Ill use the data_grid() function from the modelr package.

newdata <-  data_grid(pp3, Surface, artistliving)
newdata

## # A tibble: 2,074 x 2
##    Surface artistliving
##      <dbl>        <dbl>
##  1    0               0
##  2    0               1
##  3    2.40            0
##  4    2.40            1
##  5    3.14            0
##  6    3.14            1
##  7    3.22            0
##  8    3.22            1
##  9    5.5             0
## 10    5.5             1
## #  with 2,064 more rows

Next we add predictions. Well use add_predictions() which takes a data frame and a model. It adds the predictions from the model to a new column in the data frame

newdata <- add_predictions(newdata, mod5)
newdata

## # A tibble: 2,074 x 3
##    Surface artistliving  pred
##      <dbl>        <dbl> <dbl>
##  1    0               0  4.88
##  2    0               1  5.02
##  3    2.40            0  4.88
##  4    2.40            1  5.02
##  5    3.14            0  4.88
##  6    3.14            1  5.02
##  7    3.22            0  4.88
##  8    3.22            1  5.02
##  9    5.5             0  4.88
## 10    5.5             1  5.02
## #  with 2,064 more rows
…
