Exploratory Data Analysis
…
#population per 1000 does give us an idea that maybe we could look at population and medals together, since there are a few countries with a much larger population than others

#Instead of a histogram you can also use a density plot which is a smoothed version of the histogram.
olympics %>% 
  arrange(desc(pop)) %>% 
  select(pop)

## # A tibble: 96 x 1
##        pop
##      <dbl>
##  1 556264.
##  2 372000 
##  3 157553 
##  4  86459.
##  5  82052 
##  6  69146.
##  7  56603.
##  8  47666 
##  9  42460.
## 10  41347.
## # ... with 86 more rows
…
Making Changes to our Data

Mutate

To create new variables or change variables in place, we are going to use dplyrs mutate() function. Just like the other dplyr verbs we learned, filter() and select(), mutate() takes a dataframe as the first argument and then the name of the new variable followed by a function to create the new variable. Remember, these functions dont modify the data frame youre operating on, and the result is transient unless you assign it to a new object or reassign it back to itself (not always a good practice).

Lets use mutate() to calculate a few extra variables.

#Normal Math
olympics %>% 
  mutate(total_gold = gold_summer + gold_winter) %>% 
  select(total_gold)

## # A tibble: 96 x 1
##    total_gold
##         <dbl>
##  1         NA
##  2         NA
##  3         NA
##  4        144
##  5         77
##  6         NA
##  7         38
##  8         NA
##  9         NA
## 10         52
## # ... with 86 more rows

#NAs are at it again.
#In this case nas are 0
#mutate_if
olympics <- olympics %>% 
  mutate_if(is.numeric, replace_na, 0)

#We have taken care of the nas
olympics %>% 
  mutate(total_gold = gold_summer + gold_winter) %>% 
  select(total_gold)

## # A tibble: 96 x 1
##    total_gold
##         <dbl>
##  1          0
##  2          5
##  3         18
##  4        144
##  5         77
##  6          0
##  7         38
##  8          0
##  9         23
## 10         52
## # ... with 86 more rows

#You can also use the mutate_if function if you want to change all character vectors to factor vectors, all numeric to character, etc.
olympics %>% 
  mutate_if(is.character, as.factor)

## # A tibble: 96 x 11
##    country continent    pop number_summer gold_summer silver_summer
##    <fct>   <fct>      <dbl>         <dbl>       <dbl>         <dbl>
##  1 Afghan~ Asia       8425.            13           0             0
##  2 Algeria Africa     9280.            12           5             2
##  3 Argent~ Americas  17877.            23          18            24
##  4 Austra~ Oceania    8691.            25         139           152
##  5 Austria Europe     6928.            26          18            33
##  6 Bahrain Asia        120.             8           0             0
##  7 Belgium Europe     8730.            25          37            52
##  8 Botswa~ Africa      442.             9           0             1
##  9 Brazil  Americas  56603.            21          23            30
## 10 Bulgar~ Europe     7275.            19          51            85
## # ... with 86 more rows, and 5 more variables: bronze_summer <dbl>,
## #   number_winter <dbl>, gold_winter <dbl>, silver_winter <dbl>,
## #   bronze_winter <dbl>
…
#Using if-else 
olympics %>% 
  mutate(more_winter = ifelse(gold_winter > gold_summer, 1, 0)) %>% 
  select(country, gold_winter, gold_summer, more_winter)

## # A tibble: 96 x 4
##    country     gold_winter gold_summer more_winter
##    <chr>             <dbl>       <dbl>       <dbl>
##  1 Afghanistan           0           0           0
##  2 Algeria               0           5           0
##  3 Argentina             0          18           0
##  4 Australia             5         139           0
##  5 Austria              59          18           1
##  6 Bahrain               0           0           0
##  7 Belgium               1          37           0
##  8 Botswana              0           0           0
##  9 Brazil                0          23           0
## 10 Bulgaria              1          51           0
## # ... with 86 more rows
…
#What country is doing the best here
olympics %>% mutate(total_per_pop = (aver_total/pop)) %>% 
  arrange(desc(total_per_pop)) %>% 
  select(country, pop, total_per_pop, total_medals)

## # A tibble: 39 x 4
##    country       pop total_per_pop total_medals
##    <chr>       <dbl>         <dbl>        <dbl>
##  1 Norway      3328.       0.00312          477
##  2 Finland     4090.       0.00246          463
##  3 Jamaica     1426.       0.00204           67
##  4 Sweden      7125.       0.00183          627
##  5 Slovenia    1490.       0.00176           34
##  6 Switzerland 4815        0.00137          323
##  7 New Zealand 1995.       0.00135          100
##  8 Australia   8691.       0.00128          480
##  9 Mongolia     801.       0.00120           24
## 10 Hungary     9504        0.00108          482
## # ... with 29 more rows
…
