Everyday Statistics
…
hormone %>% count(Status, Animal)

## # A tibble: 43 x 3
##    Status  Animal          n
##    <chr>   <chr>       <int>
##  1 NotPreg Akela02        35
##  2 NotPreg Cheyenne03     44
##  3 NotPreg Diamantia04    34
##  4 NotPreg Ibera10        54
##  5 NotPreg Louise03       33
##  6 NotPreg Morada03       35
##  7 NotPreg Reba03         19
##  8 NotPreg Selena09       34
##  9 NotPreg Toto03         37
## 10 NotPreg Violeta02      16
## #  with 33 more rows
…
Discrete variable Statistics

Until now weve only discussed analyzing continuous outcomes (dependent variables). Weve tested for differences in means between two groups with t-tests, differences among means between n groups with ANOVA, and more general relationships using linear regression. In all of these cases, the dependent variable, i.e., the outcome, or \(Y\) variable, was continuous. What if our outcome variable is discrete, e.g., Yes/No, Pregnant/NotPregnant, etc.? Here we use a different set of procedures for assessing significant associations.

So far we have covered: 1. T-tests  analyzing differences in one continuous variable between 2 groups 2. ANOVA  analyzing differences in one continuous variable between 3+ groups 3. LM  Next week we will go through analyzing the impact of a continuous variable on another continuous variable, but here we did an introduction to the functions we will need.

Test of proportion

One of the most basic questions we could have is what proportion of my data

The wolf dataset does not lend itself well to discrete variable statistics, so lets load another dataset. This is the diamonds dataset that comes with the ggplot2 package.

diamonds

## # A tibble: 53,940 x 10
##    carat cut       color clarity depth table price     x     y     z
##    <dbl> <ord>     <ord> <ord>   <dbl> <dbl> <int> <dbl> <dbl> <dbl>
##  1 0.23  Ideal     E     SI2      61.5    55   326  3.95  3.98  2.43
##  2 0.21  Premium   E     SI1      59.8    61   326  3.89  3.84  2.31
##  3 0.23  Good      E     VS1      56.9    65   327  4.05  4.07  2.31
##  4 0.290 Premium   I     VS2      62.4    58   334  4.2   4.23  2.63
##  5 0.31  Good      J     SI2      63.3    58   335  4.34  4.35  2.75
##  6 0.24  Very Good J     VVS2     62.8    57   336  3.94  3.96  2.48
##  7 0.24  Very Good I     VVS1     62.3    57   336  3.95  3.98  2.47
##  8 0.26  Very Good H     SI1      61.9    55   337  4.07  4.11  2.53
##  9 0.22  Fair      E     VS2      65.1    61   337  3.87  3.78  2.49
## 10 0.23  Very Good H     VS1      59.4    61   338  4     4.05  2.39
## #  with 53,930 more rows
…
diamonds <- diamonds %>%
  mutate(priceCat = case_when(
    price < 1228 ~ "Inexpensive",
    price >= 1228 & price < 4221 ~ "Average",
    price >= 4221 ~ "Expensive"
    )) %>%
  mutate(priceCat = factor(priceCat, levels = c("Inexpensive", "Average", "Expensive")))

Lets create a sample of 500 diamonds from this dataset

diamonds %>%
  sample_n(500)

## # A tibble: 500 x 11
##    carat cut       color clarity depth table price     x     y     z priceCat   
##    <dbl> <ord>     <ord> <ord>   <dbl> <dbl> <int> <dbl> <dbl> <dbl> <fct>      
##  1  0.9  Very Good D     SI2      62.2    57  3975  6.11  6.15  3.81 Average    
##  2  1    Good      D     SI1      57.6    62  4155  6.62  6.5   3.78 Average    
##  3  0.52 Very Good G     SI1      60.6    61  1161  5.17  5.19  3.14 Inexpensive
##  4  1.07 Ideal     G     VS1      62.1    57  7858  6.48  6.57  4.05 Expensive  
##  5  1.5  Very Good I     VS2      59.4    61  9342  7.41  7.45  4.41 Expensive  
##  6  0.3  Ideal     E     VS1      61.7    57   710  4.28  4.31  2.65 Inexpensive
##  7  0.56 Premium   G     VS1      61.2    60  1819  5.26  5.3   3.23 Average    
##  8  1.22 Very Good G     VS1      61.2    58  9261  6.85  6.9   4.21 Expensive  
##  9  0.59 Ideal     I     VS2      62      54  1300  5.4   5.43  3.36 Average    
## 10  0.56 Premium   D     SI1      61.4    58  1814  5.33  5.29  3.26 Average    
## #  with 490 more rows
…
