Data Wrangling in R
…
## 
## -- Column specification --------------------------------------------------------
## cols(
##   country = col_character(),
##   continent = col_character(),
##   year = col_double(),
##   STR = col_double()
## )

# Display the data
happy

## # A tibble: 156 x 3
##    country     continent Score
##    <chr>       <chr>     <dbl>
##  1 Finland     Europe     7.77
##  2 Denmark     Europe     7.6 
##  3 Norway      Europe     7.55
##  4 Iceland     Europe     7.49
##  5 Netherlands Europe     7.49
##  6 Switzerland Europe     7.48
##  7 Sweden      Europe     7.34
##  8 New Zealand Oceania    7.31
##  9 Canada      Americas   7.28
## 10 Austria     Europe     7.25
## # ... with 146 more rows

happy_2015_2018

## # A tibble: 626 x 3
##    country      year Score
##    <chr>       <dbl> <dbl>
##  1 Finland      2018  7.63
##  2 Norway       2018  7.59
##  3 Denmark      2018  7.56
##  4 Iceland      2018  7.50
##  5 Switzerland  2018  7.49
##  6 Netherlands  2018  7.44
##  7 Canada       2018  7.33
##  8 New Zealand  2018  7.32
##  9 Sweden       2018  7.31
## 10 Australia    2018  7.27
## # ... with 616 more rows

STR

## # A tibble: 484 x 4
##    country              continent  year   STR
##    <chr>                <chr>     <dbl> <dbl>
##  1 Afghanistan          Asia       2015  44.3
##  2 Afghanistan          Asia       2017  44.0
##  3 Africa (Northern)    <NA>       2015  21.9
##  4 Africa (Northern)    <NA>       2016  22.4
##  5 Africa (Northern)    <NA>       2017  22.9
##  6 Africa (Sub-Saharan) <NA>       2015  38.6
##  7 Africa (Sub-Saharan) <NA>       2016  38.6
##  8 Africa (Sub-Saharan) <NA>       2017  38.5
##  9 Albania              Europe     2015  18.6
## 10 Albania              Europe     2016  18.2
## # ... with 474 more rows
…
# If we took off the names_glue argument, our variable names would just be 2015, 2016, etc.
happy_wide <- happy_2015_2018 %>% 
  pivot_wider(names_from = year, names_glue = "Score_{year}", values_from = Score)

As mentioned earlier, pivot_longer() is the inverse of pivot_wider. We will use this a bit later, but essentially you tell R the columns that you want to gather and then the name for the new column you are creating.

#?pivot_longer
happy_wide %>% 
  pivot_longer(cols = starts_with("Score_"), values_to = "Score") %>% 
  mutate(year = str_replace(name, "Score_", "")) %>% 
  select(-name)

## # A tibble: 672 x 3
##    country Score year 
##    <chr>   <dbl> <chr>
##  1 Finland  7.63 2018 
##  2 Finland  7.47 2017 
##  3 Finland  7.41 2016 
##  4 Finland  7.41 2015 
##  5 Norway   7.59 2018 
##  6 Norway   7.54 2017 
##  7 Norway   7.50 2016 
##  8 Norway   7.52 2015 
##  9 Denmark  7.56 2018 
## 10 Denmark  7.52 2017 
## # ... with 662 more rows
…
## # A tibble: 2 x 2
##   Field     Age  
##   <chr>     <chr>
## 1 Education 52   
## 2 Business  43

Unite

Unite is essentially the opposite of separate. It acts much like paste would work, where it combines two (or more) separate columns into one while separating with a specific value

# Let's pretend we want to reunite the country and continent by several colons
big_mac_new %>% unite(col = new_var, c("country", "continent"), sep = ",")

## # A tibble: 1,146 x 3
##    date     new_var               price
##    <chr>    <chr>                 <dbl>
##  1 4/1/2000 Argentina,Americas     2.5 
##  2 4/1/2000 Australia,Oceania      1.54
##  3 4/1/2000 Brazil,Americas        1.65
##  4 4/1/2000 Canada,Americas        1.94
##  5 4/1/2000 Switzerland,Europe     3.47
##  6 4/1/2000 Chile,Americas         2.45
##  7 4/1/2000 China,Asia             1.20
##  8 4/1/2000 Czech Republic,Europe  1.39
##  9 4/1/2000 Denmark,Europe         3.08
## 10 4/1/2000 Hungary,Europe         1.22
## # ... with 1,136 more rows
…
