Multiple Regression
…
## GDP                              1.420e-05  1.845e-05   0.770 0.441717    
## Population                      -2.969e-10  9.286e-10  -0.320 0.749227    
## thinness__1_19_years             1.149e-02  3.272e-02   0.351 0.725598    
## thinness_5_9_years               6.635e-02  3.124e-02   2.124 0.033839 *  
## Income_composition_of_resources  9.846e-01  5.944e-01   1.656 0.097836 .  
## Schooling                        2.849e-01  7.799e-02   3.653 0.000268 ***
## ---
## Signif. codes:  0 '***' 0.001 '**' 0.01 '*' 0.05 '.' 0.1 ' ' 1
## 
## Residual standard error: 1.665 on 1497 degrees of freedom
##   (1279 observations deleted due to missingness)
## Multiple R-squared:  0.9675, Adjusted R-squared:  0.9642 
## F-statistic: 294.9 on 151 and 1497 DF,  p-value: < 2.2e-16
## 
## # A tibble: 153 x 5
##    term              estimate std.error statistic  p.value
##    <chr>                <dbl>     <dbl>     <dbl>    <dbl>
##  1 (Intercept)        -391.      34.3      -11.4  5.77e-29
##  2 CountryAlbania       16.5      0.857     19.3  2.63e-74
##  3 CountryAlgeria       14.3      0.850     16.8  2.04e-58
##  4 CountryAngola        -6.46     0.817     -7.90 5.37e-15
##  5 CountryArgentina     15.4      1.07      14.5  1.65e-44
##  6 CountryArmenia       14.9      0.836     17.8  2.35e-64
##  7 CountryAustralia     21.4      1.30      16.4  8.74e-56
##  8 CountryAustria       22.4      1.07      21.0  5.15e-86
##  9 CountryAzerbaijan    12.4      0.821     15.1  4.30e-48
## 10 CountryBangladesh    10.9      0.703     15.6  9.22e-51
## # ... with 143 more rows
…
And now we generate the predicted values using data_grid() and add_predictions() as before

newdata2 <- data_grid(hf, age, ejection_fraction)
newdata2 <- add_predictions(newdata2, log_mod3, type = "response")
newdata2

## # A tibble: 799 x 3
##      age ejection_fraction   pred
##    <dbl>             <dbl>  <dbl>
##  1    40                14 0.381 
##  2    40                15 0.366 
##  3    40                17 0.336 
##  4    40                20 0.293 
##  5    40                25 0.230 
##  6    40                30 0.177 
##  7    40                35 0.134 
##  8    40                38 0.113 
##  9    40                40 0.100 
## 10    40                45 0.0741
## # ... with 789 more rows
…
