Predictive Analytics
…
The final portion is to compare our predicted outcomes to our actual outcomes within the training and testing dataset. We used the data_grid functions before to do this, but here I will show another way to do this that will be extendable to other machine learning models.

predict(le_fit, train_data)

## # A tibble: 1,390 x 1
##    .pred
##    <dbl>
##  1  63.1
##  2  63.6
##  3  63.6
##  4  62.8
##  5  62.2
##  6  61.2
##  7  59.3
##  8  57.4
##  9  58.1
## 10  58.9
## # ... with 1,380 more rows

# Adding the actual train data results
le_pred <- 
  predict(le_fit, train_data) %>% 
  bind_cols(train_data %>% select(Life_expectancy)) 

le_pred 

## # A tibble: 1,390 x 2
##    .pred Life_expectancy
##    <dbl>           <dbl>
##  1  63.1            65  
##  2  63.6            59.9
##  3  63.6            59.9
##  4  62.8            58.8
##  5  62.2            58.6
##  6  61.2            57.5
##  7  59.3            57.3
##  8  57.4            57  
##  9  58.1            56.7
## 10  58.9            56.2
## # ... with 1,380 more rows
…
predict(le_fit, test_data)

## # A tibble: 463 x 1
##    .pred
##    <dbl>
##  1  63.6
##  2  62.1
##  3  61.9
##  4  60.7
##  5  75.6
##  6  71.4
##  7  70.5
##  8  73.5
##  9  73.7
## 10  69.0
## # ... with 453 more rows

# Adding the actual test data results
le_pred <- 
  predict(le_fit, test_data) %>% 
  bind_cols(test_data %>% select(Life_expectancy)) 

le_pred

## # A tibble: 463 x 2
##    .pred Life_expectancy
##    <dbl>           <dbl>
##  1  63.6            59.5
##  2  62.1            59.2
##  3  61.9            58.1
##  4  60.7            57.3
##  5  75.6            77.5
##  6  71.4            73  
##  7  70.5            73.6
##  8  73.5            75.4
##  9  73.7            74.7
## 10  69.0            72.9
## # ... with 453 more rows
…
# Notice the number of 0 coefficients.
lasso_pred <- 
  predict(lasso_fit, test_data) %>% 
  bind_cols(test_data %>% select(Life_expectancy)) 

lasso_pred

## # A tibble: 463 x 2
##    .pred Life_expectancy
##    <dbl>           <dbl>
##  1  63.7            59.5
##  2  62.3            59.2
##  3  62.1            58.1
##  4  60.9            57.3
##  5  75.5            77.5
##  6  71.2            73  
##  7  70.3            73.6
##  8  73.5            75.4
##  9  73.7            74.7
## 10  69.2            72.9
## # ... with 453 more rows
…
lambda_grid <- grid_regular(penalty(), levels = 50)

#We can reuse the workflow from before.
lasso_grid <- tune_grid(
  wf %>% add_model(tune_spec),
  resamples = lasso_boot,
  grid = lambda_grid
)

lasso_grid %>%
  collect_metrics()

## # A tibble: 100 x 7
##     penalty .metric .estimator  mean     n std_err .config              
##       <dbl> <chr>   <chr>      <dbl> <int>   <dbl> <chr>                
##  1 1.00e-10 rmse    standard   4.15     25 0.0267  Preprocessor1_Model01
##  2 1.00e-10 rsq     standard   0.782    25 0.00309 Preprocessor1_Model01
##  3 1.60e-10 rmse    standard   4.15     25 0.0267  Preprocessor1_Model02
##  4 1.60e-10 rsq     standard   0.782    25 0.00309 Preprocessor1_Model02
##  5 2.56e-10 rmse    standard   4.15     25 0.0267  Preprocessor1_Model03
##  6 2.56e-10 rsq     standard   0.782    25 0.00309 Preprocessor1_Model03
##  7 4.09e-10 rmse    standard   4.15     25 0.0267  Preprocessor1_Model04
##  8 4.09e-10 rsq     standard   0.782    25 0.00309 Preprocessor1_Model04
##  9 6.55e-10 rmse    standard   4.15     25 0.0267  Preprocessor1_Model05
## 10 6.55e-10 rsq     standard   0.782    25 0.00309 Preprocessor1_Model05
## # ... with 90 more rows
…
#Notice we get 1s and 0s instead of continuous measures
predict(hf_fit, hf_train_data)

## # A tibble: 225 x 1
##    .pred_class
##    <fct>      
##  1 1          
##  2 1          
##  3 1          
##  4 1          
##  5 1          
##  6 1          
##  7 0          
##  8 1          
##  9 1          
## 10 0          
## # ... with 215 more rows
…
##            .pred_class
## DEATH_EVENT   0   1
##           0 138  15
##           1  22  50

# proportion incorrect = (18+12)/(141+12+18+54)
# 13.3 % incorrect
(18+12)/(141+12+18+54)

## [1] 0.1333333

predict(hf_fit, hf_test_data)

## # A tibble: 74 x 1
##    .pred_class
##    <fct>      
##  1 1          
##  2 0          
##  3 1          
##  4 1          
##  5 1          
##  6 1          
##  7 1          
##  8 1          
##  9 0          
## 10 1          
## # ... with 64 more rows
…
